10 Designing Final Figures | UVM ThermoFly REU Crew
…
lt_surv_curv
# # A tibble: 36 × 8
# # Groups:   Genotype [36]
#    Genotype data             fit    lt_s          tidy_fit lt_10 lt_50 lt_90
#    <chr>    <list>           <list> <list>        <list>   <dbl> <dbl> <dbl>
#  1 FLCK 02  <tibble [8 × 7]> <drc>  <dbl [3 × 4]> <tibble>  33.6  34.9  36.2
#  2 FLCK 03  <tibble [8 × 7]> <drc>  <dbl [3 × 4]> <tibble>  33.4  34.5  35.7
#  3 FLCK 05  <tibble [8 × 7]> <drc>  <dbl [3 × 4]> <tibble>  33.7  34.7  35.7
#  4 FLCK 06  <tibble [8 × 7]> <drc>  <dbl [3 × 4]> <tibble>  34.7  35.3  35.8
#  5 FLCK 08  <tibble [8 × 7]> <drc>  <dbl [3 × 4]> <tibble>  33.9  34.9  35.9
#  6 FLCK 09  <tibble [8 × 7]> <drc>  <dbl [3 × 4]> <tibble>  34.3  35.1  35.9
#  7 JPOK     <tibble [8 × 7]> <drc>  <dbl [3 × 4]> <tibble>  33.4  34.1  34.9
#  8 JPSC     <tibble [8 × 7]> <drc>  <dbl [3 × 4]> <tibble>  33.7  34.7  35.7
#  9 FRMO-01  <tibble [8 × 7]> <drc>  <dbl [3 × 4]> <tibble>  33.8  34.7  35.5
# 10 FRMO-02  <tibble [8 × 7]> <drc>  <dbl [3 × 4]> <tibble>  34.8  35.4  36.0
# # … with 26 more rows
…
