4 Tidyverse | UVM ThermoFly REU Crew
…
4.4 Let’s tidy it

mdh_df <- mdh_df %>%
  pivot_longer(everything(),
               names_to = "tissue",
               values_to = "iu_gfw")

mdh_df
# # A tibble: 45 × 2
#    tissue   iu_gfw
#    <chr>     <dbl>
#  1 gill      11.7 
#  2 adductor  17.4 
#  3 mantle     4.90
#  4 gill       9.06
#  5 adductor  19.7 
#  6 mantle     2.87
#  7 gill      11.0 
#  8 adductor  19.4 
#  9 mantle     7.71
# 10 gill      12.8 
# # … with 35 more rows
…
We will practice piping together in a moment.

starwars data set.

4.8 arrange

# Arrange the tibble by height
starwars %>%
  arrange(height)
# # A tibble: 87 × 14
#    name     height  mass hair_color skin_color eye_color birth_year sex   gender
#    <chr>     <int> <dbl> <chr>      <chr>      <chr>          <dbl> <chr> <chr> 
#  1 Yoda         66    17 white      green      brown            896 male  mascu…
#  2 Ratts T…     79    15 none       grey, blue unknown           NA male  mascu…
#  3 Wicket …     88    20 brown      brown      brown              8 male  mascu…
#  4 Dud Bolt     94    45 none       blue, grey yellow            NA male  mascu…
#  5 R2-D2        96    32 <NA>       white, bl… red               33 none  mascu…
#  6 R4-P17       96    NA none       silver, r… red, blue         NA none  femin…
#  7 R5-D4        97    32 <NA>       white, red red               NA none  mascu…
#  8 Sebulba     112    40 none       grey, red  orange            NA male  mascu…
#  9 Gasgano     122    NA none       white, bl… black             NA male  mascu…
# 10 Watto       137    NA black      blue, grey yellow            NA male  mascu…
# # … with 77 more rows, and 5 more variables: homeworld <chr>, species <chr>,
# #   films <list>, vehicles <list>, starships <list>

By default it arranges height ascending from low to high. You can change that behavoir by wrapping the variable you want to arrange by in the desc() function like below:

# Arrange the tibble by height descending
starwars %>%
  arrange(desc(height))
# # A tibble: 87 × 14
#    name     height  mass hair_color skin_color eye_color birth_year sex   gender
#    <chr>     <int> <dbl> <chr>      <chr>      <chr>          <dbl> <chr> <chr> 
#  1 Yarael …    264    NA none       white      yellow          NA   male  mascu…
#  2 Tarfful     234   136 brown      brown      blue            NA   male  mascu…
#  3 Lama Su     229    88 none       grey       black           NA   male  mascu…
#  4 Chewbac…    228   112 brown      unknown    blue           200   male  mascu…
#  5 Roos Ta…    224    82 none       grey       orange          NA   male  mascu…
#  6 Grievous    216   159 none       brown, wh… green, y…       NA   male  mascu…
#  7 Taun We     213    NA none       grey       black           NA   fema… femin…
#  8 Rugor N…    206    NA none       green      orange          NA   male  mascu…
#  9 Tion Me…    206    80 none       grey       black           NA   male  mascu…
# 10 Darth V…    202   136 none       white      yellow          41.9 male  mascu…
# # … with 77 more rows, and 5 more variables: homeworld <chr>, species <chr>,
# #   films <list>, vehicles <list>, starships <list>
…
There is also a tidyverse way to do that which is a bit shorter

# slice_max will order by a variable and take the top n
starwars %>%
  slice_max(order_by = height, n = 20)
# # A tibble: 22 × 14
#    name     height  mass hair_color skin_color eye_color birth_year sex   gender
#    <chr>     <int> <dbl> <chr>      <chr>      <chr>          <dbl> <chr> <chr> 
#  1 Yarael …    264    NA none       white      yellow          NA   male  mascu…
#  2 Tarfful     234   136 brown      brown      blue            NA   male  mascu…
#  3 Lama Su     229    88 none       grey       black           NA   male  mascu…
#  4 Chewbac…    228   112 brown      unknown    blue           200   male  mascu…
#  5 Roos Ta…    224    82 none       grey       orange          NA   male  mascu…
#  6 Grievous    216   159 none       brown, wh… green, y…       NA   male  mascu…
#  7 Taun We     213    NA none       grey       black           NA   fema… femin…
#  8 Rugor N…    206    NA none       green      orange          NA   male  mascu…
#  9 Tion Me…    206    80 none       grey       black           NA   male  mascu…
# 10 Darth V…    202   136 none       white      yellow          41.9 male  mascu…
# # … with 12 more rows, and 5 more variables: homeworld <chr>, species <chr>,
# #   films <list>, vehicles <list>, starships <list>
…
