4 Tidyverse | UVM ThermoFly REU Crew
…
4.4 Let’s tidy it

mdh_df <- mdh_df %>%
  pivot_longer(everything(),
               names_to = "tissue",
               values_to = "iu_gfw")

mdh_df
# A tibble: 45 × 2
   tissue   iu_gfw
   <chr>     <dbl>
 1 gill       9.49
 2 adductor  20.6 
 3 mantle     3.63
 4 gill      12.0 
 5 adductor  18.2 
 6 mantle     6.33
 7 gill      11.2 
 8 adductor  20.8 
 9 mantle     1.25
10 gill      13.6 
# … with 35 more rows
…
